127.0.0.1 - - [09/Feb/2024:10:32:08 +0530] "GET / HTTP/1.1" 404 751
0:0:0:0:0:0:0:1 - - [09/Feb/2024:10:32:10 +0530] "GET /WebProject1/Hi.html HTTP/1.1" 200 163
127.0.0.1 - - [09/Feb/2024:11:02:33 +0530] "GET / HTTP/1.1" 404 751
0:0:0:0:0:0:0:1 - - [09/Feb/2024:11:02:34 +0530] "GET /WebProject1/Hi.html HTTP/1.1" 200 193
0:0:0:0:0:0:0:1 - - [09/Feb/2024:11:02:36 +0530] "GET /WebProject1/HiServlet HTTP/1.1" 404 776
