127.0.0.1 - - [12/Feb/2024:09:34:23 +0530] "GET / HTTP/1.1" 404 751
0:0:0:0:0:0:0:1 - - [12/Feb/2024:09:34:24 +0530] "GET /Registration_form/RegistrationForm.html HTTP/1.1" 200 676
0:0:0:0:0:0:0:1 - - [12/Feb/2024:09:35:21 +0530] "POST /Registration_form/Registerservlet HTTP/1.1" 200 75
0:0:0:0:0:0:0:1 - - [12/Feb/2024:09:38:20 +0530] "GET /Registration_form/RegistrationForm.html HTTP/1.1" 304 -
0:0:0:0:0:0:0:1 - - [12/Feb/2024:09:38:43 +0530] "POST /Registration_form/Registerservlet HTTP/1.1" 200 129
